{
	"navCrateNew": "New Row",
	"navFilter": "Filter",
	"navHighlight": "Highlight",
	"navArrangeCol": "Arrange Column's Positions",
	"navLocalSort": "Sort Local",
	"navHideShow": "Hide / Show Columns",
	"navLanguage": "Language",
	"navExport": "Export",
	"navPrint": "Print",
	"navRefresh": "Refresh",
	"navShare": "Share",

	"titleNavCreateNew": "Click to add new row",
	"titleNavFilter": "Filter table's data",
	"titleNavHighlight": "Highlight special data",
	"titleNavArrangeCol": "Drag and Drop to arrange column's position",
	"titleNavLocalSort": "Sort locally table by column",
	"titleNavHideShow": "Hide / Show some columns for better view",
	"titleNavLanguage": "Change language of table",
	"titleNavExport": "Export table in CSV format",
	"titleNavPrint": "Print",
	"titleNavRefresh": "Refresh",
	"titleNavShare": "Share",
	"titleNavHideShowRestore": "Show all columns",

	"titleModalCreate": "Create New Row",
	"titleModalDelete": "Delete This Row",
	"titleModalExport": "Export Table As CSV",
	"titleModalDetail": "Detail of Data",
	"titleModalPrint": "Print Table",
	"titleModalUpdate": "Update Row's Data",

	"titleFormFieldRequire": "This field is required.",

	"titleRowHighlight": "Highlight this row",
	"titleRowDetail": "View this row in detail",
	"titleRowUpdate": "Update this row",
	"titleRowDelete": "Delete this row",
	"titleDoubleClickUpdateCell": "Double click to update this cell's value",
	"titleCellNotEditable": "This cell is not editable",
	"titleSelectAllRows": "Select All Rows",
	"titleSelectThisRow": "Select this row",
	"titleFilterByThisCol": "Filter data by this column",

	"confirmationDelete": "Are you sure to delete this row?",

	"copyShareUrlToClipboard": "Alternatively, please select the URL above and make copy of it.",

	"wordCopy": "Copy",
	"wordReset": "Reset",
	"wordRestore": "Restore",
	"wordHide": "Hide",
	"wordShow": "Show",
	"wordRow": "Row",
	"wordRows": "Rows",
	"wordTo": "To",
	"wordPage": "Page",
	"wordArrange": "Arrange",
	"wordHighlight": "Highlight",
	"wordActions": "Actions",

	"wordColumn": "Column",
	"wordColumns": "Columns",

	"wordSelected": "Selected",
	"wordSelect": "Select",

	"wordAll": "All",
	"wordInclude": "Include",

	"wordHeader": "Header",
	"wordFooter": "Footer",

	"wordSubmit": "Submit",
	"wordReset": "Reset",
	"wordCancel": "Cancel",
	"wordUpdate": "Update",
	"wordExport": "Export",
	"wordPrint": "Print",

	"wordFirst": "First",
	"wordPrevious": "Previous",
	"wordNext": "Next",
	"wordLast": "Last",

	"wordHorizontal": "Horizontal",
	"wordVertical": "Vertical",
	"wordDiagonal": "Diagonal",

	"wordLeft": "Left",
	"wordRight": "Right",
	"wordCenter": "Center",

	"wordSum": "Sum",
	"wordAverage": "Average",
	"wordMin": "Min",
	"wordMax": "Max",

	"notifErrorTitle": "Sorry! Error happened.",

	"notifWarningPrinting_1": "No COLUMN was selected to print.",
	"notifWarningPrinting_2": "No ROW was selected to print.",
	"notifErrorPrinting": "Error happened while printing.",
	"notifSuccessPrinting": "Printing! Please check new print page.",

	"notifWarningExport_1": "No COLUMN was selected to export.",
	"notifWarningExport_2": "No ROW was selected to export.",
	"notifWarningExport_3": "File name is not valid.",
	"notifErrorExport": "Error happened while exporting.",
	"notifSuccessExport": "Exported! Please check your download.",

	"notifErrorImportShareUrl": "Error happened while importing share URL. There might be problems with the shared-URL.",
	"notifSuccessImportShareUrl": "Import share URL successfully!",

	"notifErrorUpdate": "Error happened while updating.",
	"notifSuccessUpdate": "Update successfully!",

	"notifErrorDelete": "Error happened while deleting.",
	"notifSuccessDelete": "Delete successfully!",

	"notifErrorCreate": "Error happened while creating.",
	"notifSuccessCreate": "Create successfully!",

	"notifErrorConversionResponse": "Error happened while converting HTTP response.",
	"notifErrorConversionRequest": "Error happened while converting HTTP request configuration.",

	"notifErrorRequestResultFormat": "Wrong formatting for HTTP response.",

	"notifWarningAlreadyCellUpdating": "Other cell is now on updating!",

	"notifWarningLanguage": "Table's language is: ",

	"phraseHighlightDataPanel": "Highlight Data Panel",
	"phraseEnableHighlight": "Enable This Highlight Condition",
	"phraseDisableHighlight": "Disable This Highlight Condition",
	"phraseFileName": "File Name",

	"phraseFilterPanel": "Filter Panel",
	"phraseEnableFilter": "Enable This Filter Condition",
	"phraseDisableFilter": "Disable This Filter Condition",
	"phraseSelectFilterCondition": "Select Filter Condition",

	"phraseLocalSortingPanel": "Local Sorting Panel",
	"phraseDescOrder": "Descending Order",
	"phraseAscOrder": "Ascending Order",
	"phraseSortBy": "Sort By",
	"phraseSortByThisCol": "Sort By This Column",

	"phraseOpenInNewTab": "Open In New Tab",
	"phraseCopyThisUrl": "Copy This URL",

	"phrasePleaseSelect": "Please Select",
	"phraseGoToPage": "Go To Page",
	"phraseDragNDrop": "Drag and Drop",

	"phraseTitleDirection": "Title Direction",
	"phraseAllColumnsTitleDirection": "All Columns Title",
	"phraseTextAlignment": "Alignment",
	"phraseSummaryBy": "Summary By",

	"phraseNeedSupport": "Do you need support?",
	"phraseSupportProcess": "Support process",

	"phraseSendFeedback": "Send us your feedback",
	"phraseFeedbackFor": "Feedback for",

	"columnCheckbox": "Check-box Column",
	"columnActions": "Actions Column",

	"formTypeAheadNoResult": "No Matching Result",
	"formTypeAheadAjaxError": "Error happened while fetching options from remote server.",
	"formOptionsAjaxError": "Error happened while fetching options from remote server.",

	"phraseNoData": "No data found",
	"phraseNoCheckbox": "No check-box",
	"phraseNoAction": "No action"
}